…
``` r
df_data %>% 
  drop_na(subject_age) %>% 
  group_by(subject_age) %>%
  summarize(
    num = n(),
    frisk_count = sum(!is.na(frisk_performed  ) & frisk_performed  == TRUE),
    frisk_rate = frisk_count / num
  ) %>% 
  filter(frisk_rate == 0)
```

    ## # A tibble: 26 × 4
    ##    subject_age   num frisk_count frisk_rate
    ##          <int> <int>       <int>      <dbl>
    ##  1          10   398           0          0
    ##  2          11   397           0          0
    ##  3          12   262           0          0
    ##  4          13   206           0          0
    ##  5          70  7005           0          0
    ##  6          71  5968           0          0
    ##  7          72  5040           0          0
    ##  8          73  4282           0          0
    ##  9          74  3812           0          0
    ## 10          75  3267           0          0
    ## # … with 16 more rows
…
